10

16 10
10
6 3
4 1
10 6
9 8
9 1
4 6
1 7
10 6
13 6
9 5
2 1

8 6
10
7 4
7 5
1 5
3 1
6 3
5 2
5 3
7 1
3 3
7 1
5 2

19 3
10
1 0
8 0
13 0
14 2
8 0
13 2
16 1
4 1
8 1
18 1
5 2

9 3
10
0 1
1 1
4 2
0 1
6 2
5 0
2 0
4 2
5 0
6 1
5 2

6 9
10
5 2
1 4
4 4
4 4
2 8
0 3
2 6
1 3
5 6
4 4
5 2

5 9
10
1 7
0 7
0 8
3 8
2 7
4 3
1 1
2 5
2 1
0 8
5 1

16 12
10
1 3
13 1
14 0
4 4
1 10
2 10
10 11
2 5
1 7
6 5
5 5

2 12
10
1 11
0 3
0 2
0 11
1 4
1 3
1 7
1 7
0 4
0 0
2 1

19 3
10
11 1
5 1
2 0
10 2
3 0
9 1
10 0
5 1
18 1
8 1
2 1

10 16
10
5 10
3 1
7 4
9 7
4 10
4 10
1 2
4 13
7 4
6 11
5 1
