8

5 5
5
1 4
4 2
3 3
3 2
3 1
5 1

5 5
5
4 4
4 3
4 2
4 1
4 0
5 1

1 10
8
0 7
0 5
0 9
0 0
0 8
0 4
0 3
0 2
4 1

10 1
8
8 0
2 0
4 0
7 0
1 0
5 0
6 0
9 0
5 1

20 20
20
3 10
14 5
6 19
16 5
9 1
0 14
14 1
8 12
8 11
8 13
10 9
11 2
19 2
1 4
5 12
3 12
15 1
0 11
2 19
17 4
10 2

10 10
20
1 6
9 9
2 4
9 1
3 8
3 3
3 2
0 7
1 8
1 4
2 1
3 8
7 9
1 0
3 4
4 1
4 3
5 1
0 5
7 1
5 1

8 9
20
1 6
0 2
5 1
0 8
0 0
3 4
5 6
2 3
2 4
5 4
6 6
6 1
5 8
1 4
4 6
0 3
2 4
4 5
2 1
3 1
5 1

12 12
20
5 3
4 5
9 5
4 7
7 4
9 10
4 8
1 0
6 3
3 7
6 11
8 1
0 5
7 3
2 7
6 7
6 8
1 5
3 9
5 1
5 1
