7

17 6
10
5 1
6 2
13 4
7 5
2 1
8 3
16 1
9 2
5 4
11 1
3 1

14 6
7
13 2
4 4
11 2
1 1
4 1
2 2
4 1
2 1

9 16
24
4 7
3 14
3 2
8 11
5 3
5 11
3 9
7 9
5 5
6 9
6 3
4 13
4 4
3 13
4 13
3 8
2 2
2 4
2 15
7 15
2 3
8 6
1 8
3 6
2 1

15 6
19
10 1
2 1
6 2
1 2
8 3
6 2
11 3
11 3
5 2
3 4
6 3
4 4
12 3
5 5
14 3
8 4
11 5
1 1
12 2
1 2

14 7
17
4 2
11 6
3 6
7 3
13 4
8 5
10 6
4 3
12 5
7 4
12 2
3 6
11 1
4 6
4 1
8 6
8 6
5 1

8 7
22
5 2
7 1
7 5
7 6
6 2
3 5
4 3
7 2
1 6
3 3
1 4
7 1
3 2
7 1
5 4
6 6
2 4
3 6
6 5
7 5
6 2
3 6
1 2

11 20
18
9 3
4 19
9 8
6 11
10 9
9 17
10 4
2 6
7 15
9 17
1 15
3 15
4 18
9 15
1 2
7 6
6 12
8 1
1 1
