*** Life<Cell> 8x4 ***

Generation = 0, Population = 10.
-0--
0-0-
----
---0
----
--0-
-0-0
000-

Generation = 3, Population = 17.
0-01
-01-
-1--
11-1
--0-
01--
-.0-
***1

Generation = 6, Population = 11.
---.
0-1-
-1--
.*--
-*1-
*.--
1.1-
.**.

*** Life<Cell> 6x8 ***

Generation = 0, Population = 13.
0---0000
0-0--0--
-----00-
0-------
--------
--0---0-

Generation = 5, Population = 28.
--0**.1*
*-.1.-0*
-*--*-*0
0000-.*0
10-0--*-
10---110

Generation = 10, Population = 23.
*-.*..-.
*-..*-.*
1..1*-*-
0-1-1*.-
.-**10.*
*-1-***-

*** Life<Cell> 14x20 ***

Generation = 0, Population = 14.
--00----------0-----
--------------------
--------------------
0-0--------0--------
--------------------
--------0----0------
--------0-----------
-0------------------
----------------0---
--------------------
--------0---0-------
---------0----------
--------------------
--------------------

Generation = 2, Population = 45.
01**10------0-0-0---
0-1--------0--------
--10----------0-----
--0-0---00----------
--------1-----------
000---0---0----0----
------0---0-----0---
---0----1----0------
------------0-0---0-
-0-------0----------
------0-------0-0---
-------0---0--------
--------0---0-------
---------0----------

Generation = 4, Population = 48.
0-**1-10--0-------0-
---1----0----0------
--.*----1-----0-----
01*-0-01-------0----
--00----.-----0-0---
----0----1--0----0--
----0---*-----------
001--0---1-0--------
------------0-------
--------1----0------
----0-------0---0---
-0---0-------0------
----------------0---
---------0----------

Generation = 6, Population = 94.
01.*.-**010-0-0-0-0-
*-1-00-0--10--------
11..00-0.---0-0---0-
--*-00*.----0-------
10-*-0--*---1---0-0-
--*-*1--11*---1----0
---1---1*11-1-0-0---
--.--------00----0--
--------1-0-0-0-0---
0-0---0--10--0-0----
--0---0---0-0---0-0-
-------000-0-0-0----
----0-------0-0-0-0-
-0---0-0-0-0-0------

*** Life<Cell> 12x12 ***

Generation = 0, Population = 11.
0--------0--
---------0--
------------
------0-----
------------
-------0----
----0--0----
0-----------
------------
------------
0-----------
0-----0-----

Generation = 12, Population = 66.
-*1**-.11*-.
*.--0..*---*
--11.0.**.*1
*-1..-0**1*-
.-*..1.*-.10
..11**..1.--
*.-.11......
*..1.-1.1.**
*1...1*.--..
.***-*.0-..-
*-.*.-.*1-*1
.**0*-*..-00

*** Life<Cell> 20x17 ***

Generation = 0, Population = 15.
-----------------
-----------------
-----------0-----
----------------0
--------------0--
-----------------
-0------------0--
-----------------
-----------------
-----------------
-----------------
-----------------
--------------0--
-------------0---
---------0-------
---0-------------
------0---------0
----------------0
----------------0
-------------0-0-

Generation = 1, Population = 40.
-----------------
-----------0-----
----------0-0---0
-----------0--00-
-------------0-00
-0---------------
0-0----------0-0-
-0------------0--
-----------------
-----------------
-----------------
--------------0--
---------------0-
---------0--0----
---0----0-0--0---
--0-0-0--0------0
---0-0-0-------01
------0--------0-
-------------0--1
------------0----

Generation = 2, Population = 49.
-----------0-----
----------------0
---------0---00--
--------------1-0
-0---------00-0-1
----------------0
---0--------0-0-0
-----------------
-0------------0--
-----------------
--------------0--
-------------0---
---------0--0---0
---0-------0---0-
------00---0--0-0
-0---0-------0--1
----0---00----0--
---0---------0010
------0-------0--
-----------0----0

Generation = 3, Population = 99.
----------0-0---0
---------0-0-000-
--------0-0-01-0-
-0-------0-00---1
0-0-------011-1--
-0-0-------0---0-
--0-0------0----1
-0-0--------0---0
0-0----------0-0-
-0---------------
---------------0-
---------0------0
---0----0-0------
--0-0-00-001----0
-0-0--110-010--01
0-0----000-00-00*
-0-----0110--01--
--0---0-00--01--1
---0-0-0---0--1--
------0---0-0-00-

*** Life<Cell> 5x5 ***

Generation = 0, Population = 4.
-0-0-
-----
-----
-----
0--0-

Generation = 2, Population = 5.
-----
-----
00---
-----
-110-

Generation = 4, Population = 7.
00---
-----
**---
-----
-*1-1

*** Life<Cell> 8x8 ***

Generation = 0, Population = 3.
--------
--------
--------
--------
0--0----
-----0--
--------
--------

Generation = 1, Population = 11.
--------
--------
--------
0--0----
-00-00--
0--00-0-
-----0--
--------

Generation = 2, Population = 12.
--------
--------
0--0----
-----0--
011--1--
---1---0
0--0----
-----0--

Generation = 3, Population = 33.
--------
0--0----
-00-00--
-000010-
1-*-0*00
-0-*000-
-00100-0
0--00-0-

Generation = 4, Population = 8.
0--0----
-----0--
--------
--------
--.-1.-1
-1-.---0
--------
-----0--

Generation = 5, Population = 25.
-00-00--
0--00-0-
-----0--
----0--0
-1.0-.0*
0-0.0-01
-0---0-0
----0-0-
