10

8 4
7
7 1
0 3
2 0
0 2
7 1
2 3
4 2
5 1

10 9
52
1 1
2 4
9 7
8 1
4 1
5 5
4 1
5 0
6 2
7 0
2 5
1 8
9 4
9 8
3 5
4 3
0 1
6 0
9 6
1 5
9 1
4 6
2 8
8 8
7 0
5 4
6 4
3 8
2 0
2 6
7 3
4 6
2 7
7 1
1 5
1 3
6 7
8 0
4 1
6 1
9 0
2 3
4 4
7 2
3 7
0 8
3 7
7 1
9 3
6 4
9 4
5 3
10 1

5 3
6
3 0
0 2
4 0
0 1
2 1
2 1
9 1

7 10
60
3 0
6 6
1 6
5 2
5 4
4 2
6 3
6 9
2 4
1 3
3 9
5 4
4 2
1 1
6 1
0 6
2 8
0 7
3 1
0 3
0 1
2 2
0 7
1 6
1 9
2 3
2 8
1 7
3 6
1 7
4 2
4 5
5 0
1 0
6 8
1 5
1 7
4 9
5 6
0 2
0 3
1 2
1 8
4 7
6 7
6 7
5 4
5 9
0 8
6 7
6 7
3 6
2 0
0 3
4 9
5 7
6 1
0 6
1 7
0 8
6 2

4 2
5
0 1
1 1
2 1
3 1
3 0
8 2

7 3
14
1 0
6 0
5 1
0 1
3 2
0 1
4 2
6 0
0 0
3 2
5 0
3 0
1 0
3 0
10 1

9 10
42
7 1
8 8
1 9
3 3
4 7
7 2
4 5
6 6
7 6
0 5
0 3
7 0
6 6
0 1
5 7
3 0
6 7
1 1
7 3
3 2
4 6
4 8
1 5
3 9
7 7
6 2
2 3
7 4
6 9
1 4
5 0
6 7
6 3
1 5
5 2
0 2
5 1
7 6
6 9
5 5
5 2
6 7
5 2

2 4
7
1 3
0 1
0 1
1 1
0 1
0 3
0 1
1 3

4 7
23
2 1
2 0
2 6
2 4
1 5
2 0
3 4
3 1
0 3
0 2
1 5
1 0
0 5
1 3
0 4
1 2
2 3
0 5
0 4
1 3
2 4
1 4
2 1
10 3

8 5
23
6 3
4 2
3 2
5 0
7 3
0 2
0 2
0 0
4 1
0 1
0 4
1 0
5 0
2 2
0 1
2 0
0 0
1 2
0 4
0 3
3 4
7 0
4 2
8 1
