9

12 12
12
11 0
11 6
6 7
6 4
10 0
3 6
0 9
10 0
5 7
7 0
1 9
0 0
15 12

5 5
13
2 0
2 1
1 0
4 4
1 3
4 0
0 0
0 2
0 3
0 4
4 3
3 3
2 4
10 3

10 14
19
0 2
4 3
7 7
2 2
6 9
3 7
1 0
3 0
4 10
9 9
4 1
8 10
0 10
2 8
3 10
7 8
4 6
4 0
8 9
2 1

14 5
17
0 3
5 2
10 3
6 2
11 1
11 0
5 0
12 3
5 0
4 0
3 0
2 3
4 3
11 3
8 0
9 1
6 3
17 8

10 15
10
5 6
5 4
7 6
8 3
2 1
1 11
4 2
7 4
7 0
2 9
3 1

9 13
16
7 4
5 9
2 0
4 3
7 11
0 10
0 0
3 8
1 4
6 10
5 3
6 1
6 11
8 3
6 11
8 2
19 8

9 5
9
2 1
4 1
0 0
4 4
0 1
1 0
0 3
4 2
5 4
7 6

7 9
12
0 8
4 4
5 7
3 0
2 1
5 7
3 7
0 7
4 0
3 5
6 7
4 6
17 13

7 8
7
3 5
3 7
3 5
0 3
0 5
4 6
5 7
14 9
