7

18 12
13
1 3
14 7
10 6
8 2
13 3
8 9
0 3
2 4
3 3
1 4
5 9
2 3
14 7
8 1

14 20
14
8 16
5 8
10 8
10 12
0 2
3 0
0 3
7 1
11 9
3 11
5 13
0 14
6 8
3 2
7 2

9 21
11
8 0
0 16
6 0
0 17
1 4
1 20
7 19
5 17
3 16
8 13
8 5
10 1

12 20
14
3 15
3 13
5 9
3 11
1 13
2 14
10 3
7 14
11 1
10 19
6 3
10 10
7 14
7 19
9 3

23 18
20
14 15
20 11
12 1
10 10
18 17
17 14
16 1
1 14
22 1
0 2
5 4
8 1
9 3
2 5
6 12
15 1
14 2
2 2
14 1
14 13
6 6

14 7
22
1 1
9 2
5 0
4 5
10 6
11 3
10 2
11 5
6 2
13 2
7 6
12 4
13 3
3 3
0 0
1 2
7 5
4 2
6 3
2 1
5 2
7 2
3 3

24 18
13
11 7
14 1
11 13
17 5
1 2
23 12
21 1
20 6
12 1
1 5
21 10
17 13
12 4
2 1
