*** Life<Cell> 13x12 ***

Generation = 0, Population = 12.
------------
0-----0-----
--0---------
-------0----
------------
-0----0-----
------------
------------
----------0-
------------
------0-0---
-0----------
-0------0---

Generation = 1, Population = 41.
0-----0-----
-00--0-0----
00-0--00----
--0---0-0---
-0----00----
0-0--0-0----
-0----0-----
----------0-
---------0-0
------0-0-0-
-0---0---0--
010---0-----
010----0-0--

Generation = 2, Population = 29.
--0---------
0-1-0--10---
1---0-------
00---0---0--
--0---------
---00--10---
----------0-
-0----0-----
------0-----
-0----------
-1--0-0-----
---0--------
-*-0------0-

Generation = 3, Population = 73.
00100--00---
1-*-100*10--
--001--000--
-1----0-0-0-
0---00-000--
---1100*100-
-0-00-0000-0
0-0--010--0-
-----010----
010-0-------
0*0----0----
--01--0---0-
0.-10----0-0

Generation = 4, Population = 37.
--*---------
*0.-*--.--0-
1-----0-----
---0-------0
----------0-
000--11.--1-
--0---1-1---
-0-----1----
-0----*-0-0-
-*----0-----
-.1-0---0-0-
-----0------
-.--100-0-0-

Generation = 5, Population = 75.
0-.00-----0-
*1.0.00.-0-0
*--010-0--00
0-0-0-0-----
0000-00--01-
1--11*-*10*0
0010--*0-00-
01----1-0-0-
0-0--0*0---0
0*--0010----
-.----00---0
--0-01------
-.-1*11----0

*** Life<Cell> 14x13 ***

Generation = 0, Population = 13.
-----------0-
----0--------
-----0--0--0-
-------------
---0---------
------0------
-------------
-----0--0----
-------------
----------0--
-------------
-------0--0--
-------------
-------0-----

Generation = 2, Population = 33.
-----0--00---
--0---0------
------11-110-
----0-0------
-0------0--0-
----01-------
---0---------
---0---1-----
-------------
-----0-0--0-0
-------------
-----0-0110-0
-------------
-----0---00--

Generation = 4, Population = 39.
---0-0-1*----
0---0-*-1----
-0--1-..-.--1
-----0--1----
-------1---0-
--0-*.-------
-----1--0--0-
-0--1--1-00-0
---1---------
-------0----0
-------------
---0-00*1--00
-------------
---0---0---1-

*** Life<Cell> 12x13 ***

Generation = 0, Population = 9.
-------------
--------0----
-------0--0-0
-------------
-------------
---------0---
---------0--0
-----------0-
-------------
-------------
----------0--
-------------

Generation = 2, Population = 25.
-------0--0-0
------0---1--
-----0--010--
--------00---
-------0-10--
-------0-----
-------0--100
-------------
---------00-0
-----------0-
--------0---0
-------------

*** Life<Cell> 13x13 ***

Generation = 0, Population = 11.
---0--0------
-----0-------
-----------0-
--0---0----0-
------------0
-------------
-------------
---0-------0-
-------------
------------0
-------------
-------------
-------------

Generation = 1, Population = 32.
--0-0--0-----
---00------0-
--0--00---010
-0-0-0-0--01-
--0---0------
------------0
---0-------0-
--0-0-----0-0
---0-------00
-----------0-
------------0
-------------
-------------

Generation = 2, Population = 36.
-0-0100-0--0-
--01--00---1-
---0--1--0--1
0----1--00---
----------000
--00--0------
------------0
-0---0---0--1
-------------
---0------010
-------------
------------0
-------------

Generation = 3, Population = 74.
0-0----0-0010
--1*--11-00*-
0--10-*--10--
-0-00--01--1-
0-00-00-0-1-1
-01100-0--00-
-000-00--0-01
0-0-0-0-0-00*
-0-0-0---000-
--0-0----01-1
---0------00-
-----------0-
------------0

Generation = 4, Population = 32.
--1----1--1*1
-0-.-0---1-.-
---*--*0---1-
0-01--01--0--
---1--1-1-*--
-----1------0
-----------1-
--1---1-----.
------------0
--------0-*--
-------------
---0-------1-
-------------

Generation = 5, Population = 63.
---0-00-0-***
0--.0---0--.0
00-*0-.-01--1
--1*011--01--
0--*0-*0--.01
---10---0-0--
--0--00---0--
-0-0-0-0---0.
--0---0-0-00-
-------0--.11
---0----0-00-
--0-0-----0-0
---0-------0-

*** Life<Cell> 14x15 ***

Generation = 0, Population = 11.
-----0---------
-------0--0----
---------------
-------0-------
---------------
---------------
---------------
---------------
0--------------
------0--------
--------0------
-------0-------
--------0------
-0-0-----------

Generation = 2, Population = 36.
---0-0-1-------
-----1-011--0--
-----0---------
-----0-0-00----
---------------
-------0-------
0--------------
------0--------
0-0-----0------
----0--11------
0-----1-0-0----
-0-0-01--0-----
------0-0-0----
-----0-0-------

Generation = 4, Population = 35.
-0-----.-1-----
---1--00-.11--0
-----0---------
---0-------1---
0----1---------
------10--0----
--------0------
---------------
--0-1---*------
-011---..-1----
----1-.-----0--
-0----.----0---
0---0---0---0--
-0---01--------

Generation = 6, Population = 84.
-0-1-11.11-1---
-1-11--*-.*.-10
00-0-0-1-0-----
-0-0-1---1-1-00
0-01-1-10------
---000*--1-10--
0-0-001-0-1----
-010--00-------
0-*-----*-1-0--
1-..10-.*1-11--
0-----.-1-1-0-0
--1--1*--01--0-
0---0-------0-0
----0*.11--0---

*** Life<Cell> 14x14 ***

Generation = 0, Population = 9.
-00-----------
--------------
----0---------
--------------
------------0-
-0------------
-------------0
--------------
--------------
--------------
--------------
--------------
-----0--------
------00------

Generation = 1, Population = 27.
0110----------
-00-0---------
---0-0--------
----0-------0-
-0---------0-0
0-0---------00
-0----------0-
-------------0
--------------
--------------
--------------
-----0--------
----0--0------
------110-----

Generation = 2, Population = 28.
1**1----------
--------------
-0----0-----0-
-0------------
----0-----0--1
---0----------
-----------010
-0------------
-------------0
--------------
-----0--------
------00------
---0---1------
----00**10----

*** Life<Cell> 11x14 ***

Generation = 0, Population = 12.
--------------
---0----------
-------------0
--------0-----
--------00----
--------------
--------------
--------------
--------------
0-00---------0
--0-----0--0--

Generation = 1, Population = 32.
---0----------
--0-0--------0
---0----0---0-
-------01----0
-------0-10---
--------00----
--------------
--------------
0-00---------0
---10---0--00-
001----0-00-00

Generation = 2, Population = 41.
-------------0
-0---0--0-----
--------10-0-0
---0--0---0---
------01--10-0
--------1-----
--------00----
0-00---------0
--1-----0--0--
-00-10-----1-0
1-*-0-0-0110-1

Generation = 3, Population = 66.
-0---0--0---0-
0-0-0-001--0--
-0-0-000-10---
--0-001-1-10--
---0-0-*-1-1--
------0-*-00-0
0-00---0-10--0
---10----0-00-
0---00-0-0010-
-11--1---0---1
-0*-10--1----*

*** Life<Cell> 14x14 ***

Generation = 0, Population = 10.
-0------------
-----0--------
--------------
-------0----0-
------------0-
------0--0----
--0-----------
--------------
--------------
--------------
--------------
-----0--------
--------------
---0----------

Generation = 1, Population = 38.
0-0--0--------
-0--0-0-------
-----0-0----0-
------0-0--010
------00-0-010
--0--0-00-0-0-
-0-0--0--0----
--0-----------
--------------
--------------
-----0--------
----0-0-------
---0-0--------
--0-0---------

Generation = 2, Population = 24.
-0-0----------
---0--------0-
-0----------1-
------1---0---
--0-------0---
----0---1--01-
0---0-------0-
------0--0----
--0-----------
-----0--------
--------------
-------0------
--------------
-0-0----------

Generation = 3, Population = 77.
0--10-------0-
--010------010
0-00--0---00*0
-00--0-0-0101-
-0-00-0-001-1-
0-0010-0-0-1-0
-0-0100-00--10
0-0-00-00-0-0-
-0-0-00--0----
--0-0-0-------
-----0-0------
------0-0-----
-0-0---0------
0---0---------

*** Life<Cell> 12x11 ***

Generation = 0, Population = 14.
----0------
-----------
-----------
-----------
-----------
0-------0-0
----0-0----
-------0---
0-------0--
----00-0---
------0----
0----------

Generation = 2, Population = 41.
--0-0-0----
-----------
----0------
0-------0-0
----0-0----
0-0---110--
1-0-0-0----
1---1--0000
0-0-1-0---0
1-01-*1--0-
1---1------
--0-00-0---

Generation = 4, Population = 39.
0-------0--
0-------0-0
------0----
-------1---
0---0---0--
--*-01.1*-0
1-*---*-0-1
1--1-------
--*-.1----*
10-.1.1--00
*-0-*1----0
--0--*-----

*** Life<Cell> 14x11 ***

Generation = 0, Population = 10.
-----------
-----------
------0----
-----------
---0-------
---0-------
--------0--
--0--------
--0--------
---0-------
-----0-----
----------0
-----------
-----0-----

Generation = 2, Population = 38.
------0----
-----------
---00---0--
---1-------
-0---00-0--
-01--0-----
--11--0---0
0---0------
0---00--0--
-00--1----0
--01---0---
---0-1--0-0
-----1-----
---0-0-0--0

Generation = 4, Population = 35.
---0--0----
---1-------
--1-----0-0
--1.-------
--0----0---
---1---0---
---*000---0
*-----1---1
*--1--1----
---0-.-1---
-0------00-
--0--.1-0--
--0--------
-0-0-----10
